{
    "oralPresentations": [
        {
            "title": "The lace expansion for nearest-neighbor models on the BCC lattice",
            "author": [],
            "presenter": "Yoshinori Kamijima",
            "date": "2017-06",
            "country": "Canada",
            "city": "Vancouver",
            "site": "University of British Columbia",
            "conferenceName": "PIMS-CRM Summer School in Probability",
            "url": "https://personal.math.ubc.ca/~angel/ssprob17/",
            "abstract": ""
        }
    ],
    "posterPresentations": [
        {
            "title": "The lace expansion for the self-avoiding walk on the BCC lattice",
            "author": [],
            "presenter": "Yoshinori Kamijima",
            "date": "2016-09",
            "country": "Italy",
            "city": "Pisa",
            "site": "Pisa University",
            "conferenceName": "Pisa-Hokkaido Summer School on Mathematics and Applications",
            "url": "https://crm.sns.it/event/370/",
            "abstract": ""
        }
    ]
}